3. Data manipulation
…
Manipulating variables involves adding new columns, removing unnecessary ones, and renaming existing columns to improve data clarity and relevance. It also includes transforming data by creating derived variables, thereby enhancing the dataset’s usability for analysis.

Select variables (select())

The select() function allows you to choose specific columns from a dataset.

library(dplyr)
library(palmerpenguins)

# Select species, island, and bill_length_mm columns
penguins |>
  select(species, island, bill_length_mm)

# A tibble: 344 × 3
   species island    bill_length_mm
   <fct>   <fct>              <dbl>
 1 Adelie  Torgersen           39.1
 2 Adelie  Torgersen           39.5
 3 Adelie  Torgersen           40.3
 4 Adelie  Torgersen           NA  
 5 Adelie  Torgersen           36.7
 6 Adelie  Torgersen           39.3
 7 Adelie  Torgersen           38.9
 8 Adelie  Torgersen           39.2
 9 Adelie  Torgersen           34.1
10 Adelie  Torgersen           42  
# ℹ 334 more rows
…
Tidy selection

The select() function supports tidy selection, much like pivot_longer() and many other functions from tidyr.

This allowing you to use helpers like starts_with() and contains() to efficiently select columns.

Rename variables (rename())

The rename() function changes the names of existing columns.

# Rename bill_length_mm to bill_length
penguins |>
  rename(bill_length = bill_length_mm)

# A tibble: 344 × 8
   species island  bill_length bill_depth_mm flipper_length_mm body_mass_g sex  
   <fct>   <fct>         <dbl>         <dbl>             <int>       <int> <fct>
 1 Adelie  Torger…        39.1          18.7               181        3750 male 
 2 Adelie  Torger…        39.5          17.4               186        3800 fema…
 3 Adelie  Torger…        40.3          18                 195        3250 fema…
 4 Adelie  Torger…        NA            NA                  NA          NA <NA> 
 5 Adelie  Torger…        36.7          19.3               193        3450 fema…
 6 Adelie  Torger…        39.3          20.6               190        3650 male 
 7 Adelie  Torger…        38.9          17.8               181        3625 fema…
 8 Adelie  Torger…        39.2          19.6               195        4675 male 
 9 Adelie  Torger…        34.1          18.1               193        3475 <NA> 
10 Adelie  Torger…        42            20.2               190        4250 <NA> 
# ℹ 334 more rows
# ℹ 1 more variable: year <int>
…
Compute variables (mutate())

The mutate() function creates new columns or modifies existing ones.

# Add a new column for body mass in kilograms
penguins |>
  mutate(body_mass_kg = body_mass_g / 1000)

# A tibble: 344 × 9
   species island    bill_length_mm bill_depth_mm flipper_length_mm body_mass_g
   <fct>   <fct>              <dbl>         <dbl>             <int>       <int>
 1 Adelie  Torgersen           39.1          18.7               181        3750
 2 Adelie  Torgersen           39.5          17.4               186        3800
 3 Adelie  Torgersen           40.3          18                 195        3250
 4 Adelie  Torgersen           NA            NA                  NA          NA
 5 Adelie  Torgersen           36.7          19.3               193        3450
 6 Adelie  Torgersen           39.3          20.6               190        3650
 7 Adelie  Torgersen           38.9          17.8               181        3625
 8 Adelie  Torgersen           39.2          19.6               195        4675
 9 Adelie  Torgersen           34.1          18.1               193        3475
10 Adelie  Torgersen           42            20.2               190        4250
# ℹ 334 more rows
# ℹ 3 more variables: sex <fct>, year <int>, body_mass_kg <dbl>
…
To apply the same calculation across multiple columns, use mutate() with across() and tidy selection functions. For instance, you can convert measurements from millimetres to centimetres for all columns ending with “mm” by dividing by 10.

penguins |>
  mutate(
    across(
      # Specify columns with tidy selection
      .cols = ends_with("mm"),
      # Calculations on each column
      .fns = ~ .x / 10, 
      # Name of the new colum (replace mm with cm)
      .names = "{sub('mm', 'cm', .col)}"
    )
  )

# A tibble: 344 × 11
   species island    bill_length_mm bill_depth_mm flipper_length_mm body_mass_g
   <fct>   <fct>              <dbl>         <dbl>             <int>       <int>
 1 Adelie  Torgersen           39.1          18.7               181        3750
 2 Adelie  Torgersen           39.5          17.4               186        3800
 3 Adelie  Torgersen           40.3          18                 195        3250
 4 Adelie  Torgersen           NA            NA                  NA          NA
 5 Adelie  Torgersen           36.7          19.3               193        3450
 6 Adelie  Torgersen           39.3          20.6               190        3650
 7 Adelie  Torgersen           38.9          17.8               181        3625
 8 Adelie  Torgersen           39.2          19.6               195        4675
 9 Adelie  Torgersen           34.1          18.1               193        3475
10 Adelie  Torgersen           42            20.2               190        4250
# ℹ 334 more rows
# ℹ 5 more variables: sex <fct>, year <int>, bill_length_cm <dbl>,
#   bill_depth_cm <dbl>, flipper_length_cm <dbl>

A named list of functions can be provided to compute multiple things across multiple columns.

Manipulating Observations

Extract rows by condition (filter())

The filter() function selects rows based on specific conditions.

# Filter for Adelie species only
penguins |>
  filter(species == "Adelie")

# A tibble: 152 × 8
   species island    bill_length_mm bill_depth_mm flipper_length_mm body_mass_g
   <fct>   <fct>              <dbl>         <dbl>             <int>       <int>
 1 Adelie  Torgersen           39.1          18.7               181        3750
 2 Adelie  Torgersen           39.5          17.4               186        3800
 3 Adelie  Torgersen           40.3          18                 195        3250
 4 Adelie  Torgersen           NA            NA                  NA          NA
 5 Adelie  Torgersen           36.7          19.3               193        3450
 6 Adelie  Torgersen           39.3          20.6               190        3650
 7 Adelie  Torgersen           38.9          17.8               181        3625
 8 Adelie  Torgersen           39.2          19.6               195        4675
 9 Adelie  Torgersen           34.1          18.1               193        3475
10 Adelie  Torgersen           42            20.2               190        4250
# ℹ 142 more rows
# ℹ 2 more variables: sex <fct>, year <int>
…
# A tibble: 5 × 8
  species island    bill_length_mm bill_depth_mm flipper_length_mm body_mass_g
  <fct>   <fct>              <dbl>         <dbl>             <int>       <int>
1 Adelie  Torgersen           39.1          18.7               181        3750
2 Adelie  Torgersen           39.5          17.4               186        3800
3 Adelie  Torgersen           40.3          18                 195        3250
4 Adelie  Torgersen           NA            NA                  NA          NA
5 Adelie  Torgersen           36.7          19.3               193        3450
# ℹ 2 more variables: sex <fct>, year <int>

# Slice the bottom 10% of rows
penguins %>%
  slice_tail(prop = 0.1)

# A tibble: 34 × 8
   species   island bill_length_mm bill_depth_mm flipper_length_mm body_mass_g
   <fct>     <fct>           <dbl>         <dbl>             <int>       <int>
 1 Chinstrap Dream            49.7          18.6               195        3600
 2 Chinstrap Dream            47.5          16.8               199        3900
 3 Chinstrap Dream            47.6          18.3               195        3850
 4 Chinstrap Dream            52            20.7               210        4800
 5 Chinstrap Dream            46.9          16.6               192        2700
 6 Chinstrap Dream            53.5          19.9               205        4500
 7 Chinstrap Dream            49            19.5               210        3950
 8 Chinstrap Dream            46.2          17.5               187        3650
 9 Chinstrap Dream            50.9          19.1               196        3550
10 Chinstrap Dream            45.5          17                 196        3500
# ℹ 24 more rows
# ℹ 2 more variables: sex <fct>, year <int>
…
Use distinct(year) to find and extract the unique years in the dataset.

penguins |> 
  distinct(year)

Sort rows (arrange())

The arrange() function orders the rows according to one or more columns. You can wrap a variable in desc() to sort that variable in descending order.

# Arrange penguins by bill length in descending order
penguins |>
  arrange(desc(bill_length_mm))

# A tibble: 344 × 8
   species   island bill_length_mm bill_depth_mm flipper_length_mm body_mass_g
   <fct>     <fct>           <dbl>         <dbl>             <int>       <int>
 1 Gentoo    Biscoe           59.6          17                 230        6050
 2 Chinstrap Dream            58            17.8               181        3700
 3 Gentoo    Biscoe           55.9          17                 228        5600
 4 Chinstrap Dream            55.8          19.8               207        4000
 5 Gentoo    Biscoe           55.1          16                 230        5850
 6 Gentoo    Biscoe           54.3          15.7               231        5650
 7 Chinstrap Dream            54.2          20.8               201        4300
 8 Chinstrap Dream            53.5          19.9               205        4500
 9 Gentoo    Biscoe           53.4          15.8               219        5500
10 Chinstrap Dream            52.8          20                 205        4550
# ℹ 334 more rows
# ℹ 2 more variables: sex <fct>, year <int>
…
While group_by() doesn’t change any rows or columns of the data itself, it alters how other dplyr functions operate, affecting calculations and transformations.

Grouped operations are most commonly used with summarise() to calculate aggregated statistics, like averages or totals, for each group. However, group_by() also works seamlessly with other dplyr functions like filter() and mutate(), allowing you to conduct calculations and transformations within each group.

Mutating within groups

Mutating within groups allows you to transform data based on group-specific calculations. For example, you can determine if a penguin’s body_mass_g is above average for its species.

penguins |> 
  group_by(species) |> 
  mutate(above_average_mass = body_mass_g > mean(body_mass_g, na.rm = TRUE)) |> 
  ungroup()

# A tibble: 344 × 9
   species island    bill_length_mm bill_depth_mm flipper_length_mm body_mass_g
   <fct>   <fct>              <dbl>         <dbl>             <int>       <int>
 1 Adelie  Torgersen           39.1          18.7               181        3750
 2 Adelie  Torgersen           39.5          17.4               186        3800
 3 Adelie  Torgersen           40.3          18                 195        3250
 4 Adelie  Torgersen           NA            NA                  NA          NA
 5 Adelie  Torgersen           36.7          19.3               193        3450
 6 Adelie  Torgersen           39.3          20.6               190        3650
 7 Adelie  Torgersen           38.9          17.8               181        3625
 8 Adelie  Torgersen           39.2          19.6               195        4675
 9 Adelie  Torgersen           34.1          18.1               193        3475
10 Adelie  Torgersen           42            20.2               190        4250
# ℹ 334 more rows
# ℹ 3 more variables: sex <fct>, year <int>, above_average_mass <lgl>
…
Code for setting up separate penguins datasets

library(dplyr)
library(palmerpenguins)
penguins_year <- penguins |> 
  group_by(year) |> 
  group_split()
penguins_2007 <- penguins_year[[1]]
penguins_2008 <- penguins_year[[3]]
penguins_2009 <- penguins_year[[2]]

bind_rows(penguins_2007, penguins_2008, penguins_2009)

# A tibble: 344 × 8
   species island    bill_length_mm bill_depth_mm flipper_length_mm body_mass_g
   <fct>   <fct>              <dbl>         <dbl>             <int>       <int>
 1 Adelie  Torgersen           39.1          18.7               181        3750
 2 Adelie  Torgersen           39.5          17.4               186        3800
 3 Adelie  Torgersen           40.3          18                 195        3250
 4 Adelie  Torgersen           NA            NA                  NA          NA
 5 Adelie  Torgersen           36.7          19.3               193        3450
 6 Adelie  Torgersen           39.3          20.6               190        3650
 7 Adelie  Torgersen           38.9          17.8               181        3625
 8 Adelie  Torgersen           39.2          19.6               195        4675
 9 Adelie  Torgersen           34.1          18.1               193        3475
10 Adelie  Torgersen           42            20.2               190        4250
# ℹ 334 more rows
# ℹ 2 more variables: sex <fct>, year <int>
…
# A tibble: 3 × 4
  species   scientific_name        nest_type                 conservation_status
  <chr>     <chr>                  <chr>                     <chr>              
1 Adelie    Pygoscelis adeliae     Nests made from stones    Least Concern      
2 Chinstrap Pygoscelis antarcticus Nests made from stones    Least Concern      
3 Gentoo    Pygoscelis papua       Nests lined with pebbles… Least Concern      

We can add this additional information about the penguin species to the data using a left_join().

penguins |>
  left_join(penguin_info, by = "species")

# A tibble: 344 × 11
   species island    bill_length_mm bill_depth_mm flipper_length_mm body_mass_g
   <chr>   <fct>              <dbl>         <dbl>             <int>       <int>
 1 Adelie  Torgersen           39.1          18.7               181        3750
 2 Adelie  Torgersen           39.5          17.4               186        3800
 3 Adelie  Torgersen           40.3          18                 195        3250
 4 Adelie  Torgersen           NA            NA                  NA          NA
 5 Adelie  Torgersen           36.7          19.3               193        3450
 6 Adelie  Torgersen           39.3          20.6               190        3650
 7 Adelie  Torgersen           38.9          17.8               181        3625
 8 Adelie  Torgersen           39.2          19.6               195        4675
 9 Adelie  Torgersen           34.1          18.1               193        3475
10 Adelie  Torgersen           42            20.2               190        4250
# ℹ 334 more rows
# ℹ 5 more variables: sex <fct>, year <int>, scientific_name <chr>,
#   nest_type <chr>, conservation_status <chr>
…
The anti_join() function filters observations from the first dataset that do not have matching keys in the second dataset. This is useful when you want to identify records in one dataset without corresponding entries in another.

Suppose we don’t want to add additional information about the islands, but we are only interested in the islands we have complete data for. We could use a filtering join to keep only the observations with known island information.

island_info <- tibble(
  island = c("Biscoe", "Torgersen"),
  coastline_km = c(10, 3),
  latitude = c(-64.8, -64.8),
  longitude = c(-63.8, -64.1)
)

penguins |>
  semi_join(island_info, by = "island")

# A tibble: 220 × 8
   species island    bill_length_mm bill_depth_mm flipper_length_mm body_mass_g
   <fct>   <fct>              <dbl>         <dbl>             <int>       <int>
 1 Adelie  Torgersen           39.1          18.7               181        3750
 2 Adelie  Torgersen           39.5          17.4               186        3800
 3 Adelie  Torgersen           40.3          18                 195        3250
 4 Adelie  Torgersen           NA            NA                  NA          NA
 5 Adelie  Torgersen           36.7          19.3               193        3450
 6 Adelie  Torgersen           39.3          20.6               190        3650
 7 Adelie  Torgersen           38.9          17.8               181        3625
 8 Adelie  Torgersen           39.2          19.6               195        4675
 9 Adelie  Torgersen           34.1          18.1               193        3475
10 Adelie  Torgersen           42            20.2               190        4250
# ℹ 210 more rows
# ℹ 2 more variables: sex <fct>, year <int>
…
