2. Tidy data restructuring
…
Each variable is a column; each column is a variable.

Each observation is a row; each row is an observation.

Each value is a cell; each cell is a single value.

This flat and consistent format makes it easier to perform data manipulation and analysis tasks, especially with other tools from the tidyverse.

Consider this untidy dataset from the World Health Organization’s global tuberculosis report:

library(tidyr)
who

# A tibble: 7,240 × 60
   country  iso2  iso3   year new_sp_m014 new_sp_m1524 new_sp_m2534 new_sp_m3544
   <chr>    <chr> <chr> <dbl>       <dbl>        <dbl>        <dbl>        <dbl>
 1 Afghani… AF    AFG    1980          NA           NA           NA           NA
 2 Afghani… AF    AFG    1981          NA           NA           NA           NA
 3 Afghani… AF    AFG    1982          NA           NA           NA           NA
 4 Afghani… AF    AFG    1983          NA           NA           NA           NA
 5 Afghani… AF    AFG    1984          NA           NA           NA           NA
 6 Afghani… AF    AFG    1985          NA           NA           NA           NA
 7 Afghani… AF    AFG    1986          NA           NA           NA           NA
 8 Afghani… AF    AFG    1987          NA           NA           NA           NA
 9 Afghani… AF    AFG    1988          NA           NA           NA           NA
10 Afghani… AF    AFG    1989          NA           NA           NA           NA
# ℹ 7,230 more rows
# ℹ 52 more variables: new_sp_m4554 <dbl>, new_sp_m5564 <dbl>,
#   new_sp_m65 <dbl>, new_sp_f014 <dbl>, new_sp_f1524 <dbl>,
#   new_sp_f2534 <dbl>, new_sp_f3544 <dbl>, new_sp_f4554 <dbl>,
#   new_sp_f5564 <dbl>, new_sp_f65 <dbl>, new_sn_m014 <dbl>,
#   new_sn_m1524 <dbl>, new_sn_m2534 <dbl>, new_sn_m3544 <dbl>,
#   new_sn_m4554 <dbl>, new_sn_m5564 <dbl>, new_sn_m65 <dbl>, …
…
who_tidy

# A tibble: 76,046 × 8
   country     iso2  iso3   year diagnosis                sex    age   count
   <chr>       <chr> <chr> <dbl> <fct>                    <fct>  <ord> <dbl>
 1 Afghanistan AF    AFG    1997 Positive pulmonary smear Male   0-14      0
 2 Afghanistan AF    AFG    1997 Positive pulmonary smear Male   15-24    10
 3 Afghanistan AF    AFG    1997 Positive pulmonary smear Male   25-34     6
 4 Afghanistan AF    AFG    1997 Positive pulmonary smear Male   35-44     3
 5 Afghanistan AF    AFG    1997 Positive pulmonary smear Male   45-54     5
 6 Afghanistan AF    AFG    1997 Positive pulmonary smear Male   55-64     2
 7 Afghanistan AF    AFG    1997 Positive pulmonary smear Male   65+       0
 8 Afghanistan AF    AFG    1997 Positive pulmonary smear Female 0-14      5
 9 Afghanistan AF    AFG    1997 Positive pulmonary smear Female 15-24    38
10 Afghanistan AF    AFG    1997 Positive pulmonary smear Female 25-34    36
# ℹ 76,036 more rows
…
and much more!

A comprehensive summary can be found in the ?tidyr_tidy_select documentation.

To tidy the who dataset into a long format, we use pivot_longer() on the wide columns which conveniently all start with "new". We can also use names_to and values_to to give better names for the new columns which previously were the names and values of the selected columns.

who |> 
  pivot_longer(
    cols = starts_with("new"),
    names_to = "diagnosis_sex_age",
    values_to = "count"
  )

# A tibble: 405,440 × 6
   country     iso2  iso3   year diagnosis_sex_age count
   <chr>       <chr> <chr> <dbl> <chr>             <dbl>
 1 Afghanistan AF    AFG    1980 new_sp_m014          NA
 2 Afghanistan AF    AFG    1980 new_sp_m1524         NA
 3 Afghanistan AF    AFG    1980 new_sp_m2534         NA
 4 Afghanistan AF    AFG    1980 new_sp_m3544         NA
 5 Afghanistan AF    AFG    1980 new_sp_m4554         NA
 6 Afghanistan AF    AFG    1980 new_sp_m5564         NA
 7 Afghanistan AF    AFG    1980 new_sp_m65           NA
 8 Afghanistan AF    AFG    1980 new_sp_f014          NA
 9 Afghanistan AF    AFG    1980 new_sp_f1524         NA
10 Afghanistan AF    AFG    1980 new_sp_f2534         NA
# ℹ 405,430 more rows

Since a wide untidy dataset requires values for every cell, the data has many missing values. After pivoting the data into a longer format, these missing values are no longer structurally required by the data (although they may still be useful or informative). We can remove these missing value rows with the values_drop_na option:

who |> 
  pivot_longer(
    cols = starts_with("new"),
    names_to = "diagnosis_sex_age",
    values_to = "count",
    values_drop_na = TRUE
  )

# A tibble: 76,046 × 6
   country     iso2  iso3   year diagnosis_sex_age count
   <chr>       <chr> <chr> <dbl> <chr>             <dbl>
 1 Afghanistan AF    AFG    1997 new_sp_m014           0
 2 Afghanistan AF    AFG    1997 new_sp_m1524         10
 3 Afghanistan AF    AFG    1997 new_sp_m2534          6
 4 Afghanistan AF    AFG    1997 new_sp_m3544          3
 5 Afghanistan AF    AFG    1997 new_sp_m4554          5
 6 Afghanistan AF    AFG    1997 new_sp_m5564          2
 7 Afghanistan AF    AFG    1997 new_sp_m65            0
 8 Afghanistan AF    AFG    1997 new_sp_f014           5
 9 Afghanistan AF    AFG    1997 new_sp_f1524         38
10 Afghanistan AF    AFG    1997 new_sp_f2534         36
# ℹ 76,036 more rows
…
Conversely, pivot_wider() is used to transform data from long to wide format. This can be useful if your data is untidy because it is too long (multiple variables are contained in rows of a column), or if you’ve completed your analysis and want to nicely present some results in a table of your report.

The pivot_wider() function requires two main inputs, the column names for the wider table’s names and values.

data |> 
  pivot_wider(
    names_from = "names",
    values_from = "values"
  )

The fish_encounters dataset contains sightings of 19 tagged fish as they travel past measurement stations.

fish_encounters

# A tibble: 114 × 3
   fish  station  seen
   <fct> <fct>   <int>
 1 4842  Release     1
 2 4842  I80_1       1
 3 4842  Lisbon      1
 4 4842  Rstr        1
 5 4842  Base_TD     1
 6 4842  BCE         1
 7 4842  BCW         1
 8 4842  BCE2        1
 9 4842  BCW2        1
10 4842  MAE         1
# ℹ 104 more rows
…
separate_wider_position()
Splits a column into multiple columns using specific position indices, ideal for fixed-width data.

separate_wider_delim()
Divides a column into new columns based on a specified delimiter, useful for structured patterns.

separate_wider_regex()
Uses regular expressions to separate a column into multiple columns, suitable for complex patterns.

The indicator variable from the world_bank_pop dataset encodes multiple variables separated by ..

world_bank_pop

# A tibble: 1,064 × 20
   country indicator      `2000`  `2001`  `2002`  `2003`  `2004`  `2005`  `2006`
   <chr>   <chr>           <dbl>   <dbl>   <dbl>   <dbl>   <dbl>   <dbl>   <dbl>
 1 ABW     SP.URB.TOTL    4.16e4 4.20e+4 4.22e+4 4.23e+4 4.23e+4 4.24e+4 4.26e+4
 2 ABW     SP.URB.GROW    1.66e0 9.56e-1 4.01e-1 1.97e-1 9.46e-2 1.94e-1 3.67e-1
 3 ABW     SP.POP.TOTL    8.91e4 9.07e+4 9.18e+4 9.27e+4 9.35e+4 9.45e+4 9.56e+4
 4 ABW     SP.POP.GROW    2.54e0 1.77e+0 1.19e+0 9.97e-1 9.01e-1 1.00e+0 1.18e+0
 5 AFE     SP.URB.TOTL    1.16e8 1.20e+8 1.24e+8 1.29e+8 1.34e+8 1.39e+8 1.44e+8
 6 AFE     SP.URB.GROW    3.60e0 3.66e+0 3.72e+0 3.71e+0 3.74e+0 3.81e+0 3.81e+0
 7 AFE     SP.POP.TOTL    4.02e8 4.12e+8 4.23e+8 4.34e+8 4.45e+8 4.57e+8 4.70e+8
 8 AFE     SP.POP.GROW    2.58e0 2.59e+0 2.61e+0 2.62e+0 2.64e+0 2.67e+0 2.70e+0
 9 AFG     SP.URB.TOTL    4.31e6 4.36e+6 4.67e+6 5.06e+6 5.30e+6 5.54e+6 5.83e+6
10 AFG     SP.URB.GROW    1.86e0 1.15e+0 6.86e+0 7.95e+0 4.59e+0 4.47e+0 5.03e+0
# ℹ 1,054 more rows
# ℹ 11 more variables: `2007` <dbl>, `2008` <dbl>, `2009` <dbl>, `2010` <dbl>,
#   `2011` <dbl>, `2012` <dbl>, `2013` <dbl>, `2014` <dbl>, `2015` <dbl>,
#   `2016` <dbl>, `2017` <dbl>

The first part is always "SP" and can be ignored, but the second part is "POP" (total population) or "URB" (urban population), and the third part is "TOTL" (population totals) or "GROW" (population growth).

We can use separate_wider_delim() to separate indicator based on the "." delimiter.

world_bank_pop |> 
  separate_wider_delim(indicator, delim = ".", names = c("sp", "location", "indicator"))

# A tibble: 1,064 × 22
   country sp    location indicator       `2000`  `2001`  `2002`  `2003`  `2004`
   <chr>   <chr> <chr>    <chr>            <dbl>   <dbl>   <dbl>   <dbl>   <dbl>
 1 ABW     SP    URB      TOTL          41625    4.20e+4 4.22e+4 4.23e+4 4.23e+4
 2 ABW     SP    URB      GROW              1.66 9.56e-1 4.01e-1 1.97e-1 9.46e-2
 3 ABW     SP    POP      TOTL          89101    9.07e+4 9.18e+4 9.27e+4 9.35e+4
 4 ABW     SP    POP      GROW              2.54 1.77e+0 1.19e+0 9.97e-1 9.01e-1
 5 AFE     SP    URB      TOTL      115551653    1.20e+8 1.24e+8 1.29e+8 1.34e+8
 6 AFE     SP    URB      GROW              3.60 3.66e+0 3.72e+0 3.71e+0 3.74e+0
 7 AFE     SP    POP      TOTL      401600588    4.12e+8 4.23e+8 4.34e+8 4.45e+8
 8 AFE     SP    POP      GROW              2.58 2.59e+0 2.61e+0 2.62e+0 2.64e+0
 9 AFG     SP    URB      TOTL        4314700    4.36e+6 4.67e+6 5.06e+6 5.30e+6
10 AFG     SP    URB      GROW              1.86 1.15e+0 6.86e+0 7.95e+0 4.59e+0
# ℹ 1,054 more rows
# ℹ 13 more variables: `2005` <dbl>, `2006` <dbl>, `2007` <dbl>, `2008` <dbl>,
#   `2009` <dbl>, `2010` <dbl>, `2011` <dbl>, `2012` <dbl>, `2013` <dbl>,
#   `2014` <dbl>, `2015` <dbl>, `2016` <dbl>, `2017` <dbl>
…
# A tibble: 3 × 3
  item    size        colour          
  <chr>   <chr>       <chr>           
1 T-Shirt S, M, L     Red, Blue, Green
2 Jacket  M, L, XL    Black, Grey     
3 Dress   XS, S, M, L Purple, Yellow  

Since each size and colour is separated by ", ", we can use separate_longer_delim() to separate the multiple product sizes and colours into rows.

clothing_data %>%
  separate_longer_delim(size, delim = ", ") |> 
  separate_longer_delim(colour, delim = ", ")

# A tibble: 23 × 3
   item    size  colour
   <chr>   <chr> <chr> 
 1 T-Shirt S     Red   
 2 T-Shirt S     Blue  
 3 T-Shirt S     Green 
 4 T-Shirt M     Red   
 5 T-Shirt M     Blue  
 6 T-Shirt M     Green 
 7 T-Shirt L     Red   
 8 T-Shirt L     Blue  
 9 T-Shirt L     Green 
10 Jacket  M     Black 
# ℹ 13 more rows
…
The unite() function combines multiple columns into a single column, separating the values of each column by a delimiter (by default sep = "_"). This is the opposite operation of separate_wider_*().

It requires two inputs, the data and columns to combine. The col argument supports tidy selection.

data |> 
  unite(col = c(col1, col2, col3))

This is rarely useful for producing tidy data, but it can be useful for preparing data for reports or creating unique identifiers.

library(palmerpenguins)
penguins %>%
  unite(col = "category", c(species, island, sex), sep = "_")

# A tibble: 344 × 6
   category     bill_length_mm bill_depth_mm flipper_length_mm body_mass_g  year
   <chr>                 <dbl>         <dbl>             <int>       <int> <int>
 1 Adelie_Torg…           39.1          18.7               181        3750  2007
 2 Adelie_Torg…           39.5          17.4               186        3800  2007
 3 Adelie_Torg…           40.3          18                 195        3250  2007
 4 Adelie_Torg…           NA            NA                  NA          NA  2007
 5 Adelie_Torg…           36.7          19.3               193        3450  2007
 6 Adelie_Torg…           39.3          20.6               190        3650  2007
 7 Adelie_Torg…           38.9          17.8               181        3625  2007
 8 Adelie_Torg…           39.2          19.6               195        4675  2007
 9 Adelie_Torg…           34.1          18.1               193        3475  2007
10 Adelie_Torg…           42            20.2               190        4250  2007
# ℹ 334 more rows
…
The complete() function transforms implicit missing values (where the row itself is missing) into explicit missing values. It does this by finding all combinations of specified variables, and adding any missing combinations using NA values.

It requires two inputs, the dataset and a structure of variables to combine.

data |> 
  complete(brand, nesting(state, region))

The nesting() function can limit combinations within other variables, preventing redundant or impossible combinations. The code uses nesting(state, region) to ensure that only existing state-region pairings are considered when filling missing data, preventing improper combinations of regions into other states.

The fish_encounters dataset only contains rows where a fish was seen at a measurement station, and so there is an implicit missing value for each time a fish was not observed.

fish_encounters

# A tibble: 114 × 3
   fish  station  seen
   <fct> <fct>   <int>
 1 4842  Release     1
 2 4842  I80_1       1
 3 4842  Lisbon      1
 4 4842  Rstr        1
 5 4842  Base_TD     1
 6 4842  BCE         1
 7 4842  BCW         1
 8 4842  BCE2        1
 9 4842  BCW2        1
10 4842  MAE         1
# ℹ 104 more rows

We can use complete() to make these unobserved fish explicit in the data (notice the additional rows, scroll to see them).

fish_encounters |> 
  complete(fish, station)

# A tibble: 209 × 3
   fish  station  seen
   <fct> <fct>   <int>
 1 4842  Release     1
 2 4842  I80_1       1
 3 4842  Lisbon      1
 4 4842  Rstr        1
 5 4842  Base_TD     1
 6 4842  BCE         1
 7 4842  BCW         1
 8 4842  BCE2        1
 9 4842  BCW2        1
10 4842  MAE         1
11 4842  MAW         1
12 4843  Release     1
13 4843  I80_1       1
14 4843  Lisbon      1
15 4843  Rstr        1
16 4843  Base_TD     1
17 4843  BCE         1
18 4843  BCW         1
19 4843  BCE2        1
20 4843  BCW2        1
21 4843  MAE         1
22 4843  MAW         1
23 4844  Release     1
24 4844  I80_1       1
25 4844  Lisbon      1
26 4844  Rstr        1
27 4844  Base_TD     1
28 4844  BCE         1
29 4844  BCW         1
30 4844  BCE2        1
31 4844  BCW2        1
32 4844  MAE         1
33 4844  MAW         1
34 4845  Release     1
35 4845  I80_1       1
36 4845  Lisbon      1
37 4845  Rstr        1
38 4845  Base_TD     1
39 4845  BCE        NA
40 4845  BCW        NA
41 4845  BCE2       NA
42 4845  BCW2       NA
43 4845  MAE        NA
44 4845  MAW        NA
45 4847  Release     1
46 4847  I80_1       1
47 4847  Lisbon      1
48 4847  Rstr       NA
49 4847  Base_TD    NA
50 4847  BCE        NA
# ℹ 159 more rows

Since we know all implicit missing values were cases where the fish wasn’t seen at the station, we can use fill to give a known value.

fish_encounters |> 
  complete(fish, station, fill = list(seen = 0))

# A tibble: 209 × 3
   fish  station  seen
   <fct> <fct>   <int>
 1 4842  Release     1
 2 4842  I80_1       1
 3 4842  Lisbon      1
 4 4842  Rstr        1
 5 4842  Base_TD     1
 6 4842  BCE         1
 7 4842  BCW         1
 8 4842  BCE2        1
 9 4842  BCW2        1
10 4842  MAE         1
11 4842  MAW         1
12 4843  Release     1
13 4843  I80_1       1
14 4843  Lisbon      1
15 4843  Rstr        1
16 4843  Base_TD     1
17 4843  BCE         1
18 4843  BCW         1
19 4843  BCE2        1
20 4843  BCW2        1
21 4843  MAE         1
22 4843  MAW         1
23 4844  Release     1
24 4844  I80_1       1
25 4844  Lisbon      1
26 4844  Rstr        1
27 4844  Base_TD     1
28 4844  BCE         1
29 4844  BCW         1
30 4844  BCE2        1
31 4844  BCW2        1
32 4844  MAE         1
33 4844  MAW         1
34 4845  Release     1
35 4845  I80_1       1
36 4845  Lisbon      1
37 4845  Rstr        1
38 4845  Base_TD     1
39 4845  BCE         0
40 4845  BCW         0
41 4845  BCE2        0
42 4845  BCW2        0
43 4845  MAE         0
44 4845  MAW         0
45 4847  Release     1
46 4847  I80_1       1
47 4847  Lisbon      1
48 4847  Rstr        0
49 4847  Base_TD     0
50 4847  BCE         0
# ℹ 159 more rows
…
